<?xml version="1.0" encoding="UTF-8" standalone="no"?>
<!DOCTYPE svg PUBLIC "-//W3C//DTD SVG 1.1//EN"
 "http://www.w3.org/Graphics/SVG/1.1/DTD/svg11.dtd">
<!-- Generated by graphviz version 2.40.1 (20161225.0304)
 -->
<!-- Title: field&lt; T, t &gt; Pages: 1 -->
<svg width="316pt" height="314pt"
 viewBox="0.00 0.00 316.00 314.00" xmlns="http://www.w3.org/2000/svg" xmlns:xlink="http://www.w3.org/1999/xlink">
<g id="graph0" class="graph" transform="scale(1 1) rotate(0) translate(4 310)">
<title>field&lt; T, t &gt;</title>
<polygon fill="#ffffff" stroke="transparent" points="-4,4 -4,-310 312,-310 312,4 -4,4"/>
<!-- Node0 -->
<g id="node1" class="node">
<title>Node0</title>
<polygon fill="#bfbfbf" stroke="#000000" points="118.5,-204.5 118.5,-305.5 186.5,-305.5 186.5,-204.5 118.5,-204.5"/>
<text text-anchor="middle" x="152.5" y="-293.5" font-family="Helvetica,sans-Serif" font-size="10.00" fill="#000000">field&lt; T, t &gt;</text>
<polyline fill="none" stroke="#000000" points="118.5,-286.5 186.5,-286.5 "/>
<text text-anchor="start" x="126.5" y="-274.5" font-family="Helvetica,sans-Serif" font-size="10.00" fill="#000000">+ u</text>
<text text-anchor="start" x="126.5" y="-263.5" font-family="Helvetica,sans-Serif" font-size="10.00" fill="#000000">&#45; Nxl</text>
<text text-anchor="start" x="126.5" y="-252.5" font-family="Helvetica,sans-Serif" font-size="10.00" fill="#000000">&#45; Nyl</text>
<polyline fill="none" stroke="#000000" points="118.5,-245.5 186.5,-245.5 "/>
<text text-anchor="start" x="126.5" y="-233.5" font-family="Helvetica,sans-Serif" font-size="10.00" fill="#000000">+ field()</text>
<text text-anchor="start" x="126.5" y="-222.5" font-family="Helvetica,sans-Serif" font-size="10.00" fill="#000000">+ field()</text>
<text text-anchor="start" x="126.5" y="-211.5" font-family="Helvetica,sans-Serif" font-size="10.00" fill="#000000">+ ~field()</text>
</g>
<!-- Node1 -->
<g id="node2" class="node">
<title>Node1</title>
<g id="a_node2"><a xlink:href="classgfield.html" target="_top" xlink:title="Derived class gfield. ">
<polygon fill="#ffffff" stroke="#000000" points="0,-11.5 0,-156.5 143,-156.5 143,-11.5 0,-11.5"/>
<text text-anchor="middle" x="71.5" y="-144.5" font-family="Helvetica,sans-Serif" font-size="10.00" fill="#000000">gfield&lt; T, t &gt;</text>
<polyline fill="none" stroke="#000000" points="0,-137.5 143,-137.5 "/>
<text text-anchor="start" x="8" y="-125.5" font-family="Helvetica,sans-Serif" font-size="10.00" fill="#000000">+ Nyg</text>
<text text-anchor="start" x="8" y="-114.5" font-family="Helvetica,sans-Serif" font-size="10.00" fill="#000000">&#45; Nxg</text>
<text text-anchor="start" x="8" y="-103.5" font-family="Helvetica,sans-Serif" font-size="10.00" fill="#000000">&#45; Nyg</text>
<polyline fill="none" stroke="#000000" points="0,-96.5 143,-96.5 "/>
<text text-anchor="start" x="8" y="-84.5" font-family="Helvetica,sans-Serif" font-size="10.00" fill="#000000">+ allgather()</text>
<text text-anchor="start" x="8" y="-73.5" font-family="Helvetica,sans-Serif" font-size="10.00" fill="#000000">+ gfield()</text>
<text text-anchor="start" x="8" y="-62.5" font-family="Helvetica,sans-Serif" font-size="10.00" fill="#000000">+ ~gfield()</text>
<text text-anchor="start" x="8" y="-51.5" font-family="Helvetica,sans-Serif" font-size="10.00" fill="#000000">+ getNxg()</text>
<text text-anchor="start" x="8" y="-40.5" font-family="Helvetica,sans-Serif" font-size="10.00" fill="#000000">+ getNyg()</text>
<text text-anchor="start" x="8" y="-29.5" font-family="Helvetica,sans-Serif" font-size="10.00" fill="#000000">+ average_and_symmetrize()</text>
<text text-anchor="start" x="8" y="-18.5" font-family="Helvetica,sans-Serif" font-size="10.00" fill="#000000">and 12 more...</text>
</a>
</g>
</g>
<!-- Node0&#45;&gt;Node1 -->
<g id="edge1" class="edge">
<title>Node0&#45;&gt;Node1</title>
<path fill="none" stroke="#191970" d="M124.036,-194.9093C118.2022,-182.5935 112.0019,-169.504 105.983,-156.7974"/>
<polygon fill="none" stroke="#191970" points="120.9726,-196.6183 128.4166,-204.1573 127.2988,-193.6216 120.9726,-196.6183"/>
</g>
<!-- Node2 -->
<g id="node3" class="node">
<title>Node2</title>
<g id="a_node3"><a xlink:href="classlfield.html" target="_top" xlink:title="{lfield\&lt; T, t \&gt;\n|+ Nyl\l&#45; Nxl\l&#45; Nyl\l&#45; Nxl_buf\l&#45; Nyl_buf\l|+ lfield()\l+ lfield()\l+ ~lfield()\l+ mpi_exchange_boundaries()\l+ getNxl()\l+ getNyl()\land 32 more...\l}">
<polygon fill="#ffffff" stroke="#000000" points="161,-.5 161,-167.5 308,-167.5 308,-.5 161,-.5"/>
<text text-anchor="middle" x="234.5" y="-155.5" font-family="Helvetica,sans-Serif" font-size="10.00" fill="#000000">lfield&lt; T, t &gt;</text>
<polyline fill="none" stroke="#000000" points="161,-148.5 308,-148.5 "/>
<text text-anchor="start" x="169" y="-136.5" font-family="Helvetica,sans-Serif" font-size="10.00" fill="#000000">+ Nyl</text>
<text text-anchor="start" x="169" y="-125.5" font-family="Helvetica,sans-Serif" font-size="10.00" fill="#000000">&#45; Nxl</text>
<text text-anchor="start" x="169" y="-114.5" font-family="Helvetica,sans-Serif" font-size="10.00" fill="#000000">&#45; Nyl</text>
<text text-anchor="start" x="169" y="-103.5" font-family="Helvetica,sans-Serif" font-size="10.00" fill="#000000">&#45; Nxl_buf</text>
<text text-anchor="start" x="169" y="-92.5" font-family="Helvetica,sans-Serif" font-size="10.00" fill="#000000">&#45; Nyl_buf</text>
<polyline fill="none" stroke="#000000" points="161,-85.5 308,-85.5 "/>
<text text-anchor="start" x="169" y="-73.5" font-family="Helvetica,sans-Serif" font-size="10.00" fill="#000000">+ lfield()</text>
<text text-anchor="start" x="169" y="-62.5" font-family="Helvetica,sans-Serif" font-size="10.00" fill="#000000">+ lfield()</text>
<text text-anchor="start" x="169" y="-51.5" font-family="Helvetica,sans-Serif" font-size="10.00" fill="#000000">+ ~lfield()</text>
<text text-anchor="start" x="169" y="-40.5" font-family="Helvetica,sans-Serif" font-size="10.00" fill="#000000">+ mpi_exchange_boundaries()</text>
<text text-anchor="start" x="169" y="-29.5" font-family="Helvetica,sans-Serif" font-size="10.00" fill="#000000">+ getNxl()</text>
<text text-anchor="start" x="169" y="-18.5" font-family="Helvetica,sans-Serif" font-size="10.00" fill="#000000">+ getNyl()</text>
<text text-anchor="start" x="169" y="-7.5" font-family="Helvetica,sans-Serif" font-size="10.00" fill="#000000">and 32 more...</text>
</a>
</g>
</g>
<!-- Node0&#45;&gt;Node2 -->
<g id="edge2" class="edge">
<title>Node0&#45;&gt;Node2</title>
<path fill="none" stroke="#191970" d="M181.2407,-195.0652C185.5004,-186.1821 189.9545,-176.8936 194.3947,-167.6342"/>
<polygon fill="none" stroke="#191970" points="178.0487,-193.6271 176.8807,-204.1573 184.3605,-196.6538 178.0487,-193.6271"/>
</g>
</g>
</svg>
