<?xml version="1.0" encoding="UTF-8" standalone="no"?>
<!DOCTYPE svg PUBLIC "-//W3C//DTD SVG 1.1//EN"
 "http://www.w3.org/Graphics/SVG/1.1/DTD/svg11.dtd">
<!-- Generated by graphviz version 2.40.1 (20161225.0304)
 -->
<!-- Title: main Pages: 1 -->
<!--zoomable 1163 -->
<svg id="main" version="1.1" xmlns="http://www.w3.org/2000/svg" xmlns:xlink="http://www.w3.org/1999/xlink" xml:space="preserve" onload="init(evt)">
<style type="text/css"><![CDATA[
.edge:hover path { stroke: red; }
.edge:hover polygon { stroke: red; fill: red; }
]]></style>
<script type="text/javascript"><![CDATA[
var edges = document.getElementsByTagName('g');
if (edges && edges.length) {
  for (var i=0;i<edges.length;i++) {
    if (edges[i].id.substr(0,4)=='edge') {
      edges[i].setAttribute('class','edge');
    }
  }
}
]]></script>
        <defs>
                <circle id="rim" cx="0" cy="0" r="7"/>
                <circle id="rim2" cx="0" cy="0" r="3.5"/>
                <g id="zoomPlus">
                        <use xlink:href="#rim" fill="#404040">
                                <set attributeName="fill" to="#808080" begin="zoomplus.mouseover" end="zoomplus.mouseout"/>
                        </use>
                        <path d="M-4,0h8M0,-4v8" fill="none" stroke="white" stroke-width="1.5" pointer-events="none"/>
                </g>
                <g id="zoomMin">
                        <use xlink:href="#rim" fill="#404040">
                                <set attributeName="fill" to="#808080" begin="zoomminus.mouseover" end="zoomminus.mouseout"/>
                        </use>
                        <path d="M-4,0h8" fill="none" stroke="white" stroke-width="1.5" pointer-events="none"/>
                </g>
                <g id="dirArrow">
                        <path fill="none" stroke="white" stroke-width="1.5" d="M0,-3.0v7 M-2.5,-0.5L0,-3.0L2.5,-0.5"/>
                </g>
               <g id="resetDef">
                       <use xlink:href="#rim2" fill="#404040">
                               <set attributeName="fill" to="#808080" begin="reset.mouseover" end="reset.mouseout"/>
                       </use>
               </g>
        </defs>

<script type="text/javascript">
var viewWidth = 524;
var viewHeight = 1163;
var sectionId = 'dynsection-1';
</script>
<script xlink:href="svgpan.js"/>
<svg id="graph" class="graph">
<g id="viewport">
<title>main</title>
<polygon fill="#ffffff" stroke="transparent" points="-4,4 -4,-1159 520,-1159 520,4 -4,4"/>
<!-- Node0 -->
<g id="node1" class="node">
<title>Node0</title>
<polygon fill="#bfbfbf" stroke="#000000" points="0,-549.5 0,-568.5 38,-568.5 38,-549.5 0,-549.5"/>
<text text-anchor="middle" x="19" y="-556.5" font-family="Helvetica,sans-Serif" font-size="10.00" fill="#000000">main</text>
</g>
<!-- Node1 -->
<g id="node2" class="node">
<title>Node1</title>
<g id="a_node2"><a xlink:href="classgfield.html#a0dcff590c53a428a50567d25d10404e2" target="_top" xlink:title="gfield::allgather">
<polygon fill="#ffffff" stroke="#000000" points="108,-1097.5 108,-1116.5 191,-1116.5 191,-1097.5 108,-1097.5"/>
<text text-anchor="middle" x="149.5" y="-1104.5" font-family="Helvetica,sans-Serif" font-size="10.00" fill="#000000">gfield::allgather</text>
</a>
</g>
</g>
<!-- Node0&#45;&gt;Node1 -->
<g id="edge1" class="edge">
<title>Node0&#45;&gt;Node1</title>
<path fill="none" stroke="#191970" d="M19.3486,-568.7013C21.8966,-637.2522 38.5542,-1047.0876 74,-1088 80.3061,-1095.2786 88.9503,-1099.9774 98.1427,-1102.9686"/>
<polygon fill="#191970" stroke="#191970" points="97.2856,-1106.3621 107.8456,-1105.5042 99.0554,-1099.5895 97.2856,-1106.3621"/>
</g>
<!-- Node5 -->
<g id="node6" class="node">
<title>Node5</title>
<g id="a_node6"><a xlink:href="classgmatrix.html#a0de07e5d50c35e6eb9e17981d5094730" target="_top" xlink:title="gmatrix::decompose">
<polygon fill="#ffffff" stroke="#000000" points="97,-1059.5 97,-1078.5 202,-1078.5 202,-1059.5 97,-1059.5"/>
<text text-anchor="middle" x="149.5" y="-1066.5" font-family="Helvetica,sans-Serif" font-size="10.00" fill="#000000">gmatrix::decompose</text>
</a>
</g>
</g>
<!-- Node0&#45;&gt;Node5 -->
<g id="edge5" class="edge">
<title>Node0&#45;&gt;Node5</title>
<path fill="none" stroke="#191970" d="M19.4366,-568.8379C22.4533,-634.8864 41.0623,-1012.2866 74,-1050 77.7787,-1054.3266 82.3837,-1057.7403 87.4364,-1060.425"/>
<polygon fill="#191970" stroke="#191970" points="86.3638,-1063.7736 96.933,-1064.5098 89.1297,-1057.3432 86.3638,-1063.7736"/>
</g>
<!-- Node6 -->
<g id="node7" class="node">
<title>Node6</title>
<g id="a_node7"><a xlink:href="classlfield.html#a8299544558cca4ccb188039e6d868aee" target="_top" xlink:title="lfield::exponentiate">
<polygon fill="#ffffff" stroke="#000000" points="100.5,-1021.5 100.5,-1040.5 198.5,-1040.5 198.5,-1021.5 100.5,-1021.5"/>
<text text-anchor="middle" x="149.5" y="-1028.5" font-family="Helvetica,sans-Serif" font-size="10.00" fill="#000000">lfield::exponentiate</text>
</a>
</g>
</g>
<!-- Node0&#45;&gt;Node6 -->
<g id="edge6" class="edge">
<title>Node0&#45;&gt;Node6</title>
<path fill="none" stroke="#191970" d="M19.5355,-568.8778C23.0435,-632.0089 43.5484,-977.4577 74,-1012 78.6241,-1017.2453 84.4627,-1021.1466 90.836,-1024.0328"/>
<polygon fill="#191970" stroke="#191970" points="89.8834,-1027.4115 100.477,-1027.5734 92.2966,-1020.8406 89.8834,-1027.4115"/>
</g>
<!-- Node9 -->
<g id="node10" class="node">
<title>Node9</title>
<g id="a_node10"><a xlink:href="classmpi__class.html#a9988290cf6944a7efcd1b1144adff7a7" target="_top" xlink:title="mpi_class::getColComm">
<polygon fill="#ffffff" stroke="#000000" points="87,-983.5 87,-1002.5 212,-1002.5 212,-983.5 87,-983.5"/>
<text text-anchor="middle" x="149.5" y="-990.5" font-family="Helvetica,sans-Serif" font-size="10.00" fill="#000000">mpi_class::getColComm</text>
</a>
</g>
</g>
<!-- Node0&#45;&gt;Node9 -->
<g id="edge9" class="edge">
<title>Node0&#45;&gt;Node9</title>
<path fill="none" stroke="#191970" d="M19.6807,-568.6721C23.9094,-627.6271 47.281,-937.1609 74,-969 77.1498,-972.7533 80.885,-975.9268 84.9817,-978.6091"/>
<polygon fill="#191970" stroke="#191970" points="83.3748,-981.7196 93.8268,-983.4536 86.7374,-975.5801 83.3748,-981.7196"/>
</g>
<!-- Node10 -->
<g id="node11" class="node">
<title>Node10</title>
<g id="a_node11"><a xlink:href="classmpi__class.html#ab876ade2f1b994bb1c920d1de9375cf6" target="_top" xlink:title="mpi_class::getPosX">
<polygon fill="#ffffff" stroke="#000000" points="272,-863.5 272,-882.5 376,-882.5 376,-863.5 272,-863.5"/>
<text text-anchor="middle" x="324" y="-870.5" font-family="Helvetica,sans-Serif" font-size="10.00" fill="#000000">mpi_class::getPosX</text>
</a>
</g>
</g>
<!-- Node0&#45;&gt;Node10 -->
<g id="edge10" class="edge">
<title>Node0&#45;&gt;Node10</title>
<path fill="none" stroke="#191970" d="M19.6702,-568.7345C23.6675,-625.3982 45.1684,-911.0694 74,-936 124.7646,-979.896 163.8625,-963.6787 225,-936 247.0912,-925.9987 240.8919,-908.5541 261,-895 265.9234,-891.6813 271.4004,-888.8097 277.0121,-886.3392"/>
<polygon fill="#191970" stroke="#191970" points="278.517,-889.5071 286.5093,-882.5519 275.9241,-883.005 278.517,-889.5071"/>
</g>
<!-- Node11 -->
<g id="node12" class="node">
<title>Node11</title>
<g id="a_node12"><a xlink:href="classmpi__class.html#aa894e45879f0e9a081efd4d4118b2491" target="_top" xlink:title="mpi_class::getPosY">
<polygon fill="#ffffff" stroke="#000000" points="272,-819.5 272,-838.5 376,-838.5 376,-819.5 272,-819.5"/>
<text text-anchor="middle" x="324" y="-826.5" font-family="Helvetica,sans-Serif" font-size="10.00" fill="#000000">mpi_class::getPosY</text>
</a>
</g>
</g>
<!-- Node0&#45;&gt;Node11 -->
<g id="edge11" class="edge">
<title>Node0&#45;&gt;Node11</title>
<path fill="none" stroke="#191970" d="M19.6149,-568.5279C22.5245,-610.382 36.3724,-777.2985 74,-810 129.6726,-858.3841 221.1795,-851.0395 276.6886,-840.5436"/>
<polygon fill="#191970" stroke="#191970" points="277.4973,-843.9513 286.6177,-838.5598 276.1257,-837.0869 277.4973,-843.9513"/>
</g>
<!-- Node12 -->
<g id="node13" class="node">
<title>Node12</title>
<g id="a_node13"><a xlink:href="classmpi__class.html#aeaf1450d343b4bf5b4dc4af51475212d" target="_top" xlink:title="mpi_class::getRowComm">
<polygon fill="#ffffff" stroke="#000000" points="84.5,-606.5 84.5,-625.5 214.5,-625.5 214.5,-606.5 84.5,-606.5"/>
<text text-anchor="middle" x="149.5" y="-613.5" font-family="Helvetica,sans-Serif" font-size="10.00" fill="#000000">mpi_class::getRowComm</text>
</a>
</g>
</g>
<!-- Node0&#45;&gt;Node12 -->
<g id="edge12" class="edge">
<title>Node0&#45;&gt;Node12</title>
<path fill="none" stroke="#191970" d="M30.4833,-568.7764C41.1244,-577.3687 57.721,-589.6213 74,-597 79.3629,-599.4308 85.0868,-601.5845 90.8936,-603.485"/>
<polygon fill="#191970" stroke="#191970" points="90.1102,-606.9046 100.6952,-606.4486 92.1362,-600.2042 90.1102,-606.9046"/>
</g>
<!-- Node13 -->
<g id="node14" class="node">
<title>Node13</title>
<g id="a_node14"><a xlink:href="classgfield.html#a8a7aa9669d548e51089535f807e0ae4b" target="_top" xlink:title="gfield::hermitian">
<polygon fill="#ffffff" stroke="#000000" points="106.5,-568.5 106.5,-587.5 192.5,-587.5 192.5,-568.5 106.5,-568.5"/>
<text text-anchor="middle" x="149.5" y="-575.5" font-family="Helvetica,sans-Serif" font-size="10.00" fill="#000000">gfield::hermitian</text>
</a>
</g>
</g>
<!-- Node0&#45;&gt;Node13 -->
<g id="edge13" class="edge">
<title>Node0&#45;&gt;Node13</title>
<path fill="none" stroke="#191970" d="M38.2557,-561.8035C53.61,-564.039 75.8777,-567.281 96.4635,-570.2782"/>
<polygon fill="#191970" stroke="#191970" points="95.9965,-573.747 106.3964,-571.7244 97.0051,-566.8201 95.9965,-573.747"/>
</g>
<!-- Node14 -->
<g id="node15" class="node">
<title>Node14</title>
<g id="a_node15"><a xlink:href="classlfield.html#af3e84687383d85efd4a7dd90c74afae8" target="_top" xlink:title="lfield::hermitian">
<polygon fill="#ffffff" stroke="#000000" points="108,-530.5 108,-549.5 191,-549.5 191,-530.5 108,-530.5"/>
<text text-anchor="middle" x="149.5" y="-537.5" font-family="Helvetica,sans-Serif" font-size="10.00" fill="#000000">lfield::hermitian</text>
</a>
</g>
</g>
<!-- Node0&#45;&gt;Node14 -->
<g id="edge14" class="edge">
<title>Node0&#45;&gt;Node14</title>
<path fill="none" stroke="#191970" d="M38.2557,-556.1965C53.9146,-553.9166 76.7641,-550.5899 97.6868,-547.5437"/>
<polygon fill="#191970" stroke="#191970" points="98.3718,-550.9809 107.7632,-546.0766 97.3632,-544.054 98.3718,-550.9809"/>
</g>
<!-- Node15 -->
<g id="node16" class="node">
<title>Node15</title>
<g id="a_node16"><a xlink:href="classmpi__class.html#a995c216b811090aa6255523e0e2a8e8a" target="_top" xlink:title="mpi_class::mpi_exchange_grid">
<polygon fill="#ffffff" stroke="#000000" points="74,-492.5 74,-511.5 225,-511.5 225,-492.5 74,-492.5"/>
<text text-anchor="middle" x="149.5" y="-499.5" font-family="Helvetica,sans-Serif" font-size="10.00" fill="#000000">mpi_class::mpi_exchange_grid</text>
</a>
</g>
</g>
<!-- Node0&#45;&gt;Node15 -->
<g id="edge15" class="edge">
<title>Node0&#45;&gt;Node15</title>
<path fill="none" stroke="#191970" d="M30.4833,-549.2236C41.1244,-540.6313 57.721,-528.3787 74,-521 79.3629,-518.5692 85.0868,-516.4155 90.8936,-514.515"/>
<polygon fill="#191970" stroke="#191970" points="92.1362,-517.7958 100.6952,-511.5514 90.1102,-511.0954 92.1362,-517.7958"/>
</g>
<!-- Node16 -->
<g id="node17" class="node">
<title>Node16</title>
<g id="a_node17"><a xlink:href="classmpi__class.html#a20929c3a4bb045fb41696ba09cee4680" target="_top" xlink:title="mpi_class::mpi_exchange\l_groups">
<polygon fill="#ffffff" stroke="#000000" points="84.5,-443 84.5,-473 214.5,-473 214.5,-443 84.5,-443"/>
<text text-anchor="start" x="92.5" y="-461" font-family="Helvetica,sans-Serif" font-size="10.00" fill="#000000">mpi_class::mpi_exchange</text>
<text text-anchor="middle" x="149.5" y="-450" font-family="Helvetica,sans-Serif" font-size="10.00" fill="#000000">_groups</text>
</a>
</g>
</g>
<!-- Node0&#45;&gt;Node16 -->
<g id="edge16" class="edge">
<title>Node0&#45;&gt;Node16</title>
<path fill="none" stroke="#191970" d="M23.4774,-549.3344C31.4065,-533.2524 49.427,-500.9941 74,-483 76.5361,-481.1429 79.2182,-479.4184 82.0003,-477.8175"/>
<polygon fill="#191970" stroke="#191970" points="83.8687,-480.7928 91.1695,-473.115 80.6743,-474.5642 83.8687,-480.7928"/>
</g>
<!-- Node17 -->
<g id="node18" class="node">
<title>Node17</title>
<g id="a_node18"><a xlink:href="classmpi__class.html#a0326e6a2416b3aacd64a3dcc84ddb79b" target="_top" xlink:title="mpi_class::mpi_init">
<polygon fill="#ffffff" stroke="#000000" points="99,-404.5 99,-423.5 200,-423.5 200,-404.5 99,-404.5"/>
<text text-anchor="middle" x="149.5" y="-411.5" font-family="Helvetica,sans-Serif" font-size="10.00" fill="#000000">mpi_class::mpi_init</text>
</a>
</g>
</g>
<!-- Node0&#45;&gt;Node17 -->
<g id="edge17" class="edge">
<title>Node0&#45;&gt;Node17</title>
<path fill="none" stroke="#191970" d="M20.3932,-549.1681C24.272,-525.5541 37.4258,-465.2856 74,-434 78.5548,-430.1038 83.7876,-426.9569 89.3285,-424.4166"/>
<polygon fill="#191970" stroke="#191970" points="90.8361,-427.5854 98.8791,-420.6889 88.2909,-421.0645 90.8361,-427.5854"/>
</g>
<!-- Node18 -->
<g id="node19" class="node">
<title>Node18</title>
<g id="a_node19"><a xlink:href="classgfield.html#af2d8ebec3637f4c70324937be433ed21" target="_top" xlink:title="gfield::multiplyByCholesky">
<polygon fill="#ffffff" stroke="#000000" points="83,-366.5 83,-385.5 216,-385.5 216,-366.5 83,-366.5"/>
<text text-anchor="middle" x="149.5" y="-373.5" font-family="Helvetica,sans-Serif" font-size="10.00" fill="#000000">gfield::multiplyByCholesky</text>
</a>
</g>
</g>
<!-- Node0&#45;&gt;Node18 -->
<g id="edge18" class="edge">
<title>Node0&#45;&gt;Node18</title>
<path fill="none" stroke="#191970" d="M20.9574,-549.4152C27.6183,-517.7003 50.3103,-416.9315 74,-395 75.6923,-393.4333 77.4945,-391.991 79.3843,-390.6635"/>
<polygon fill="#191970" stroke="#191970" points="81.2844,-393.6072 88.1628,-385.5487 77.7604,-387.5589 81.2844,-393.6072"/>
</g>
<!-- Node19 -->
<g id="node20" class="node">
<title>Node19</title>
<g id="a_node20"><a xlink:href="classlfield.html#ad624c0368bcb52153abf6568d1bce971" target="_top" xlink:title="lfield::reduceAndSet">
<polygon fill="#ffffff" stroke="#000000" points="97.5,-328.5 97.5,-347.5 201.5,-347.5 201.5,-328.5 97.5,-328.5"/>
<text text-anchor="middle" x="149.5" y="-335.5" font-family="Helvetica,sans-Serif" font-size="10.00" fill="#000000">lfield::reduceAndSet</text>
</a>
</g>
</g>
<!-- Node0&#45;&gt;Node19 -->
<g id="edge19" class="edge">
<title>Node0&#45;&gt;Node19</title>
<path fill="none" stroke="#191970" d="M20.3341,-549.3073C25.5366,-512.885 45.5876,-384.8693 74,-357 78.0406,-353.0366 82.7795,-349.8615 87.88,-347.3227"/>
<polygon fill="#191970" stroke="#191970" points="89.4673,-350.4542 97.379,-343.4075 86.7997,-343.9824 89.4673,-350.4542"/>
</g>
<!-- Node22 -->
<g id="node23" class="node">
<title>Node22</title>
<g id="a_node23"><a xlink:href="classmomenta.html#ad86512de264263c1d6aef474b8829999" target="_top" xlink:title="momenta::set">
<polygon fill="#ffffff" stroke="#000000" points="111,-290.5 111,-309.5 188,-309.5 188,-290.5 111,-290.5"/>
<text text-anchor="middle" x="149.5" y="-297.5" font-family="Helvetica,sans-Serif" font-size="10.00" fill="#000000">momenta::set</text>
</a>
</g>
</g>
<!-- Node0&#45;&gt;Node22 -->
<g id="edge22" class="edge">
<title>Node0&#45;&gt;Node22</title>
<path fill="none" stroke="#191970" d="M19.8699,-549.492C23.7459,-509.1912 40.7323,-352.9826 74,-319 81.2333,-311.6112 90.8857,-306.9417 100.8653,-304.0261"/>
<polygon fill="#191970" stroke="#191970" points="101.9501,-307.3662 110.8766,-301.6594 100.3396,-300.554 101.9501,-307.3662"/>
</g>
<!-- Node23 -->
<g id="node24" class="node">
<title>Node23</title>
<g id="a_node24"><a xlink:href="classlfield.html#a14cbafc22e451ce6ecaea0744b56dff6" target="_top" xlink:title="lfield::setCorrelationsFor\lCouplingConstant">
<polygon fill="#ffffff" stroke="#000000" points="88,-683 88,-713 211,-713 211,-683 88,-683"/>
<text text-anchor="start" x="96" y="-701" font-family="Helvetica,sans-Serif" font-size="10.00" fill="#000000">lfield::setCorrelationsFor</text>
<text text-anchor="middle" x="149.5" y="-690" font-family="Helvetica,sans-Serif" font-size="10.00" fill="#000000">CouplingConstant</text>
</a>
</g>
</g>
<!-- Node0&#45;&gt;Node23 -->
<g id="edge23" class="edge">
<title>Node0&#45;&gt;Node23</title>
<path fill="none" stroke="#191970" d="M21.003,-568.816C25.9817,-590.7338 40.9738,-644.0032 74,-673 75.7704,-674.5544 77.6402,-676.0126 79.5882,-677.3806"/>
<polygon fill="#191970" stroke="#191970" points="78.199,-680.6311 88.5655,-682.819 81.826,-674.644 78.199,-680.6311"/>
</g>
<!-- Node25 -->
<g id="node26" class="node">
<title>Node25</title>
<g id="a_node26"><a xlink:href="classlfield.html#a6f7ec82c0653a48437f83bda21e94a40" target="_top" xlink:title="lfield::setGaussian">
<polygon fill="#ffffff" stroke="#000000" points="100.5,-252.5 100.5,-271.5 198.5,-271.5 198.5,-252.5 100.5,-252.5"/>
<text text-anchor="middle" x="149.5" y="-259.5" font-family="Helvetica,sans-Serif" font-size="10.00" fill="#000000">lfield::setGaussian</text>
</a>
</g>
</g>
<!-- Node0&#45;&gt;Node25 -->
<g id="edge25" class="edge">
<title>Node0&#45;&gt;Node25</title>
<path fill="none" stroke="#191970" d="M19.5655,-549.2272C22.3415,-504.6481 35.9618,-321.038 74,-281 78.6912,-276.0622 84.4608,-272.3321 90.7026,-269.5256"/>
<polygon fill="#191970" stroke="#191970" points="91.9517,-272.7954 100.1147,-266.0416 89.5216,-266.2308 91.9517,-272.7954"/>
</g>
<!-- Node26 -->
<g id="node27" class="node">
<title>Node26</title>
<g id="a_node27"><a xlink:href="classlfield.html#a1370b1b3fd05bfcffb64018dd3bedf70" target="_top" xlink:title="lfield::setKernelPbarX">
<polygon fill="#ffffff" stroke="#000000" points="94,-907.5 94,-926.5 205,-926.5 205,-907.5 94,-907.5"/>
<text text-anchor="middle" x="149.5" y="-914.5" font-family="Helvetica,sans-Serif" font-size="10.00" fill="#000000">lfield::setKernelPbarX</text>
</a>
</g>
</g>
<!-- Node0&#45;&gt;Node26 -->
<g id="edge26" class="edge">
<title>Node0&#45;&gt;Node26</title>
<path fill="none" stroke="#191970" d="M19.1881,-568.8113C20.3536,-619.1533 28.1409,-848.0324 74,-898 77.1174,-901.3966 80.7444,-904.2255 84.6898,-906.5775"/>
<polygon fill="#191970" stroke="#191970" points="83.2392,-909.764 93.7617,-911.0001 86.3067,-903.4719 83.2392,-909.764"/>
</g>
<!-- Node28 -->
<g id="node29" class="node">
<title>Node28</title>
<g id="a_node29"><a xlink:href="classlfield.html#a1caeadd397716179bb8d72b60236cffb" target="_top" xlink:title="lfield::setKernelPbarXWith\lCouplingConstant">
<polygon fill="#ffffff" stroke="#000000" points="84,-858 84,-888 215,-888 215,-858 84,-858"/>
<text text-anchor="start" x="92" y="-876" font-family="Helvetica,sans-Serif" font-size="10.00" fill="#000000">lfield::setKernelPbarXWith</text>
<text text-anchor="middle" x="149.5" y="-865" font-family="Helvetica,sans-Serif" font-size="10.00" fill="#000000">CouplingConstant</text>
</a>
</g>
</g>
<!-- Node0&#45;&gt;Node28 -->
<g id="edge31" class="edge">
<title>Node0&#45;&gt;Node28</title>
<path fill="none" stroke="#191970" d="M19.6384,-568.571C22.7834,-613.0803 37.9518,-799.4948 74,-843 76.9134,-846.5161 80.2975,-849.6227 83.9865,-852.3672"/>
<polygon fill="#191970" stroke="#191970" points="82.1777,-855.365 92.4853,-857.815 85.9553,-849.4718 82.1777,-855.365"/>
</g>
<!-- Node29 -->
<g id="node30" class="node">
<title>Node29</title>
<g id="a_node30"><a xlink:href="classlfield.html#a6b6c5fddce5518d9909f64b89b873a68" target="_top" xlink:title="lfield::setKernelPbarY">
<polygon fill="#ffffff" stroke="#000000" points="94,-781.5 94,-800.5 205,-800.5 205,-781.5 94,-781.5"/>
<text text-anchor="middle" x="149.5" y="-788.5" font-family="Helvetica,sans-Serif" font-size="10.00" fill="#000000">lfield::setKernelPbarY</text>
</a>
</g>
</g>
<!-- Node0&#45;&gt;Node29 -->
<g id="edge36" class="edge">
<title>Node0&#45;&gt;Node29</title>
<path fill="none" stroke="#191970" d="M20.1892,-568.6949C25.0005,-606.3649 44.2022,-742.3852 74,-772 77.1277,-775.1085 80.6845,-777.7333 84.5101,-779.9472"/>
<polygon fill="#191970" stroke="#191970" points="83.3164,-783.2555 93.8491,-784.4014 86.3299,-776.9374 83.3164,-783.2555"/>
</g>
<!-- Node31 -->
<g id="node32" class="node">
<title>Node31</title>
<g id="a_node32"><a xlink:href="classlfield.html#af3c6253e8700837bcc8121ef328f41ef" target="_top" xlink:title="lfield::setKernelPbarYWith\lCouplingConstant">
<polygon fill="#ffffff" stroke="#000000" points="84,-732 84,-762 215,-762 215,-732 84,-732"/>
<text text-anchor="start" x="92" y="-750" font-family="Helvetica,sans-Serif" font-size="10.00" fill="#000000">lfield::setKernelPbarYWith</text>
<text text-anchor="middle" x="149.5" y="-739" font-family="Helvetica,sans-Serif" font-size="10.00" fill="#000000">CouplingConstant</text>
</a>
</g>
</g>
<!-- Node0&#45;&gt;Node31 -->
<g id="edge41" class="edge">
<title>Node0&#45;&gt;Node31</title>
<path fill="none" stroke="#191970" d="M19.3358,-568.6974C20.838,-596.7437 29.0558,-678.7603 74,-723 75.1027,-724.0854 76.2543,-725.1218 77.4484,-726.1114"/>
<polygon fill="#191970" stroke="#191970" points="75.6721,-729.1395 85.8774,-731.986 79.6746,-723.3967 75.6721,-729.1395"/>
</g>
<!-- Node32 -->
<g id="node33" class="node">
<title>Node32</title>
<g id="a_node33"><a xlink:href="classgfield.html#ad90d3015d279c25b8d55f51a706fd0b8" target="_top" xlink:title="gfield::setKernelXbarX">
<polygon fill="#ffffff" stroke="#000000" points="92.5,-126.5 92.5,-145.5 206.5,-145.5 206.5,-126.5 92.5,-126.5"/>
<text text-anchor="middle" x="149.5" y="-133.5" font-family="Helvetica,sans-Serif" font-size="10.00" fill="#000000">gfield::setKernelXbarX</text>
</a>
</g>
</g>
<!-- Node0&#45;&gt;Node32 -->
<g id="edge46" class="edge">
<title>Node0&#45;&gt;Node32</title>
<path fill="none" stroke="#191970" d="M19.6712,-549.4746C23.8437,-491.4159 46.9377,-186.6236 74,-156 76.7499,-152.8883 79.9223,-150.2348 83.3768,-147.9745"/>
<polygon fill="#191970" stroke="#191970" points="85.2876,-150.9222 92.4649,-143.1288 81.9941,-144.7454 85.2876,-150.9222"/>
</g>
<!-- Node36 -->
<g id="node37" class="node">
<title>Node36</title>
<g id="a_node37"><a xlink:href="classgfield.html#aea2227cd08dda6575702afa3dd70033f" target="_top" xlink:title="gfield::setKernelXbarXWith\lCouplingConstant">
<polygon fill="#ffffff" stroke="#000000" points="82.5,-77 82.5,-107 216.5,-107 216.5,-77 82.5,-77"/>
<text text-anchor="start" x="90.5" y="-95" font-family="Helvetica,sans-Serif" font-size="10.00" fill="#000000">gfield::setKernelXbarXWith</text>
<text text-anchor="middle" x="149.5" y="-84" font-family="Helvetica,sans-Serif" font-size="10.00" fill="#000000">CouplingConstant</text>
</a>
</g>
</g>
<!-- Node0&#45;&gt;Node36 -->
<g id="edge50" class="edge">
<title>Node0&#45;&gt;Node36</title>
<path fill="none" stroke="#191970" d="M19.5843,-549.3883C23.398,-487.954 45.4793,-151.7389 74,-117 74.9857,-115.7994 76.0305,-114.6561 77.1274,-113.5673"/>
<polygon fill="#191970" stroke="#191970" points="79.4853,-116.1615 85.0474,-107.1441 75.076,-110.7247 79.4853,-116.1615"/>
</g>
<!-- Node37 -->
<g id="node38" class="node">
<title>Node37</title>
<g id="a_node38"><a xlink:href="classgfield.html#aab4026191433a667c8f1a698d1e887ed" target="_top" xlink:title="gfield::setKernelXbarY">
<polygon fill="#ffffff" stroke="#000000" points="92.5,-214.5 92.5,-233.5 206.5,-233.5 206.5,-214.5 92.5,-214.5"/>
<text text-anchor="middle" x="149.5" y="-221.5" font-family="Helvetica,sans-Serif" font-size="10.00" fill="#000000">gfield::setKernelXbarY</text>
</a>
</g>
</g>
<!-- Node0&#45;&gt;Node37 -->
<g id="edge54" class="edge">
<title>Node0&#45;&gt;Node37</title>
<path fill="none" stroke="#191970" d="M19.3134,-549.2198C21.0564,-501.0195 31.0918,-289.2168 74,-243 76.7661,-240.0206 79.9244,-237.4791 83.3447,-235.3136"/>
<polygon fill="#191970" stroke="#191970" points="85.041,-238.3767 92.3116,-230.6702 81.8221,-232.1606 85.041,-238.3767"/>
</g>
<!-- Node38 -->
<g id="node39" class="node">
<title>Node38</title>
<g id="a_node39"><a xlink:href="classgfield.html#aa5886f04e2cae1df02e4b83aa642dedc" target="_top" xlink:title="gfield::setKernelXbarYWith\lCouplingConstant">
<polygon fill="#ffffff" stroke="#000000" points="82.5,-165 82.5,-195 216.5,-195 216.5,-165 82.5,-165"/>
<text text-anchor="start" x="90.5" y="-183" font-family="Helvetica,sans-Serif" font-size="10.00" fill="#000000">gfield::setKernelXbarYWith</text>
<text text-anchor="middle" x="149.5" y="-172" font-family="Helvetica,sans-Serif" font-size="10.00" fill="#000000">CouplingConstant</text>
</a>
</g>
</g>
<!-- Node0&#45;&gt;Node38 -->
<g id="edge58" class="edge">
<title>Node0&#45;&gt;Node38</title>
<path fill="none" stroke="#191970" d="M19.1856,-549.1638C20.3508,-497.6342 28.183,-259.1114 74,-205 75.1348,-203.6598 76.3432,-202.391 77.6151,-201.1899"/>
<polygon fill="#191970" stroke="#191970" points="79.7889,-203.9331 85.5234,-195.0243 75.4849,-198.4126 79.7889,-203.9331"/>
</g>
<!-- Node39 -->
<g id="node40" class="node">
<title>Node39</title>
<g id="a_node40"><a xlink:href="classlfield.html#a751b066f2c88db69b0315de9354e082b" target="_top" xlink:title="lfield::setMVModel">
<polygon fill="#ffffff" stroke="#000000" points="100.5,-38.5 100.5,-57.5 198.5,-57.5 198.5,-38.5 100.5,-38.5"/>
<text text-anchor="middle" x="149.5" y="-45.5" font-family="Helvetica,sans-Serif" font-size="10.00" fill="#000000">lfield::setMVModel</text>
</a>
</g>
</g>
<!-- Node0&#45;&gt;Node39 -->
<g id="edge62" class="edge">
<title>Node0&#45;&gt;Node39</title>
<path fill="none" stroke="#191970" d="M19.442,-549.1668C22.4945,-483.1494 41.2971,-105.9171 74,-68 78.5817,-62.6878 84.3949,-58.7059 90.7548,-55.7335"/>
<polygon fill="#191970" stroke="#191970" points="92.2863,-58.8955 100.3843,-52.0637 89.7934,-52.3544 92.2863,-58.8955"/>
</g>
<!-- Node43 -->
<g id="node44" class="node">
<title>Node43</title>
<g id="a_node44"><a xlink:href="classlfield.html#a5b407bbd988e3b009ef8364bbe705beb" target="_top" xlink:title="lfield::solvePoisson">
<polygon fill="#ffffff" stroke="#000000" points="99,-644.5 99,-663.5 200,-663.5 200,-644.5 99,-644.5"/>
<text text-anchor="middle" x="149.5" y="-651.5" font-family="Helvetica,sans-Serif" font-size="10.00" fill="#000000">lfield::solvePoisson</text>
</a>
</g>
</g>
<!-- Node0&#45;&gt;Node43 -->
<g id="edge66" class="edge">
<title>Node0&#45;&gt;Node43</title>
<path fill="none" stroke="#191970" d="M23.2144,-568.603C30.8709,-584.8891 48.6499,-617.8261 74,-635 78.6159,-638.1272 83.7046,-640.7398 88.9938,-642.9227"/>
<polygon fill="#191970" stroke="#191970" points="88.0776,-646.3127 98.672,-646.4058 90.448,-639.7262 88.0776,-646.3127"/>
</g>
<!-- Node44 -->
<g id="node45" class="node">
<title>Node44</title>
<g id="a_node45"><a xlink:href="classlfield.html#aa00604913a5b5456eaad72fcc36a6b42" target="_top" xlink:title="lfield::trace">
<polygon fill="#ffffff" stroke="#000000" points="117,-.5 117,-19.5 182,-19.5 182,-.5 117,-.5"/>
<text text-anchor="middle" x="149.5" y="-7.5" font-family="Helvetica,sans-Serif" font-size="10.00" fill="#000000">lfield::trace</text>
</a>
</g>
</g>
<!-- Node0&#45;&gt;Node44 -->
<g id="edge68" class="edge">
<title>Node0&#45;&gt;Node44</title>
<path fill="none" stroke="#191970" d="M19.3473,-549.2805C21.8861,-480.6003 38.4919,-69.9923 74,-29 82.2274,-19.5019 94.4363,-14.3967 106.6499,-11.7463"/>
<polygon fill="#191970" stroke="#191970" points="107.5326,-15.1477 116.8231,-10.0548 106.3845,-8.2424 107.5326,-15.1477"/>
</g>
<!-- Node2 -->
<g id="node3" class="node">
<title>Node2</title>
<g id="a_node3"><a xlink:href="classlfield.html#a6525c9ba54e57f27ff551fc3f6169f14" target="_top" xlink:title="lfield::getNxl">
<polygon fill="#ffffff" stroke="#000000" points="288.5,-1135.5 288.5,-1154.5 359.5,-1154.5 359.5,-1135.5 288.5,-1135.5"/>
<text text-anchor="middle" x="324" y="-1142.5" font-family="Helvetica,sans-Serif" font-size="10.00" fill="#000000">lfield::getNxl</text>
</a>
</g>
</g>
<!-- Node1&#45;&gt;Node2 -->
<g id="edge2" class="edge">
<title>Node1&#45;&gt;Node2</title>
<path fill="none" stroke="#191970" d="M191.2971,-1116.1019C217.5827,-1121.826 251.5044,-1129.213 278.4714,-1135.0855"/>
<polygon fill="#191970" stroke="#191970" points="277.9201,-1138.5474 288.4359,-1137.2554 279.4096,-1131.7077 277.9201,-1138.5474"/>
</g>
<!-- Node3 -->
<g id="node4" class="node">
<title>Node3</title>
<g id="a_node4"><a xlink:href="classlfield.html#a7eba0ea85f6f0df54a45cf97cd3ad53d" target="_top" xlink:title="lfield::getNyl">
<polygon fill="#ffffff" stroke="#000000" points="288.5,-1097.5 288.5,-1116.5 359.5,-1116.5 359.5,-1097.5 288.5,-1097.5"/>
<text text-anchor="middle" x="324" y="-1104.5" font-family="Helvetica,sans-Serif" font-size="10.00" fill="#000000">lfield::getNyl</text>
</a>
</g>
</g>
<!-- Node1&#45;&gt;Node3 -->
<g id="edge3" class="edge">
<title>Node1&#45;&gt;Node3</title>
<path fill="none" stroke="#191970" d="M191.2971,-1107C217.4669,-1107 251.2057,-1107 278.1146,-1107"/>
<polygon fill="#191970" stroke="#191970" points="278.4359,-1110.5001 288.4359,-1107 278.4358,-1103.5001 278.4359,-1110.5001"/>
</g>
<!-- Node4 -->
<g id="node5" class="node">
<title>Node4</title>
<g id="a_node5"><a xlink:href="classmpi__class.html#af78626438bee67b2eacf5bd583d4e4ce" target="_top" xlink:title="mpi_class::getSize">
<polygon fill="#ffffff" stroke="#000000" points="274,-1059.5 274,-1078.5 374,-1078.5 374,-1059.5 274,-1059.5"/>
<text text-anchor="middle" x="324" y="-1066.5" font-family="Helvetica,sans-Serif" font-size="10.00" fill="#000000">mpi_class::getSize</text>
</a>
</g>
</g>
<!-- Node1&#45;&gt;Node4 -->
<g id="edge4" class="edge">
<title>Node1&#45;&gt;Node4</title>
<path fill="none" stroke="#191970" d="M191.2971,-1097.8981C214.9745,-1092.7419 244.8479,-1086.2366 270.2529,-1080.7042"/>
<polygon fill="#191970" stroke="#191970" points="271.0826,-1084.1057 280.1089,-1078.558 269.5931,-1077.266 271.0826,-1084.1057"/>
</g>
<!-- Node7 -->
<g id="node8" class="node">
<title>Node7</title>
<g id="a_node8"><a xlink:href="classsu3__matrix.html#aedf511a4b74bf6f2a4a5ba681c1df72e" target="_top" xlink:title="su3_matrix::exponentiate">
<polygon fill="#ffffff" stroke="#000000" points="261,-1021.5 261,-1040.5 387,-1040.5 387,-1021.5 261,-1021.5"/>
<text text-anchor="middle" x="324" y="-1028.5" font-family="Helvetica,sans-Serif" font-size="10.00" fill="#000000">su3_matrix::exponentiate</text>
</a>
</g>
</g>
<!-- Node6&#45;&gt;Node7 -->
<g id="edge7" class="edge">
<title>Node6&#45;&gt;Node7</title>
<path fill="none" stroke="#191970" d="M198.5724,-1031C214.7517,-1031 233.1129,-1031 250.698,-1031"/>
<polygon fill="#191970" stroke="#191970" points="250.9399,-1034.5001 260.9398,-1031 250.9398,-1027.5001 250.9399,-1034.5001"/>
</g>
<!-- Node8 -->
<g id="node9" class="node">
<title>Node8</title>
<g id="a_node9"><a xlink:href="su3__matrix_8h.html#ab226771af05ad43c66ee5a218eee0bdd" target="_top" xlink:title="function_zheevh3">
<polygon fill="#ffffff" stroke="#000000" points="423,-1021.5 423,-1040.5 516,-1040.5 516,-1021.5 423,-1021.5"/>
<text text-anchor="middle" x="469.5" y="-1028.5" font-family="Helvetica,sans-Serif" font-size="10.00" fill="#000000">function_zheevh3</text>
</a>
</g>
</g>
<!-- Node7&#45;&gt;Node8 -->
<g id="edge8" class="edge">
<title>Node7&#45;&gt;Node8</title>
<path fill="none" stroke="#191970" d="M387.3952,-1031C395.8884,-1031 404.5547,-1031 412.9204,-1031"/>
<polygon fill="#191970" stroke="#191970" points="412.944,-1034.5001 422.9439,-1031 412.9439,-1027.5001 412.944,-1034.5001"/>
</g>
<!-- Node20 -->
<g id="node21" class="node">
<title>Node20</title>
<g id="a_node21"><a xlink:href="classgfield.html#a53fa88cad304f3381b70aef740e903b4" target="_top" xlink:title="gfield::getNxg">
<polygon fill="#ffffff" stroke="#000000" points="285.5,-309.5 285.5,-328.5 362.5,-328.5 362.5,-309.5 285.5,-309.5"/>
<text text-anchor="middle" x="324" y="-316.5" font-family="Helvetica,sans-Serif" font-size="10.00" fill="#000000">gfield::getNxg</text>
</a>
</g>
</g>
<!-- Node19&#45;&gt;Node20 -->
<g id="edge20" class="edge">
<title>Node19&#45;&gt;Node20</title>
<path fill="none" stroke="#191970" d="M201.8558,-332.2994C225.1001,-329.7685 252.3005,-326.8068 275.1253,-324.3216"/>
<polygon fill="#191970" stroke="#191970" points="275.7121,-327.7785 285.2745,-323.2165 274.9544,-320.8196 275.7121,-327.7785"/>
</g>
<!-- Node21 -->
<g id="node22" class="node">
<title>Node21</title>
<g id="a_node22"><a xlink:href="classgfield.html#a12884fdf0eca769d389e04c4200263d2" target="_top" xlink:title="gfield::getNyg">
<polygon fill="#ffffff" stroke="#000000" points="285.5,-347.5 285.5,-366.5 362.5,-366.5 362.5,-347.5 285.5,-347.5"/>
<text text-anchor="middle" x="324" y="-354.5" font-family="Helvetica,sans-Serif" font-size="10.00" fill="#000000">gfield::getNyg</text>
</a>
</g>
</g>
<!-- Node19&#45;&gt;Node21 -->
<g id="edge21" class="edge">
<title>Node19&#45;&gt;Node21</title>
<path fill="none" stroke="#191970" d="M201.8558,-343.7006C225.1001,-346.2315 252.3005,-349.1932 275.1253,-351.6784"/>
<polygon fill="#191970" stroke="#191970" points="274.9544,-355.1804 285.2745,-352.7835 275.7121,-348.2215 274.9544,-355.1804"/>
</g>
<!-- Node24 -->
<g id="node25" class="node">
<title>Node24</title>
<g id="a_node25"><a xlink:href="classmomenta.html#a5b2ec8b44c4874d8e18036c8927461db" target="_top" xlink:title="momenta::phat2">
<polygon fill="#ffffff" stroke="#000000" points="280.5,-738.5 280.5,-757.5 367.5,-757.5 367.5,-738.5 280.5,-738.5"/>
<text text-anchor="middle" x="324" y="-745.5" font-family="Helvetica,sans-Serif" font-size="10.00" fill="#000000">momenta::phat2</text>
</a>
</g>
</g>
<!-- Node23&#45;&gt;Node24 -->
<g id="edge24" class="edge">
<title>Node23&#45;&gt;Node24</title>
<path fill="none" stroke="#191970" d="M201.8558,-713.0016C227.0664,-720.2253 256.9306,-728.7824 280.8186,-735.6271"/>
<polygon fill="#191970" stroke="#191970" points="280.0821,-739.0569 290.6594,-738.4468 282.0103,-732.3276 280.0821,-739.0569"/>
</g>
<!-- Node26&#45;&gt;Node10 -->
<g id="edge27" class="edge">
<title>Node26&#45;&gt;Node10</title>
<path fill="none" stroke="#191970" d="M187.523,-907.4377C199.5143,-904.4204 212.8112,-901.0727 225,-898 241.7971,-893.7656 260.1957,-889.1212 276.5257,-884.9968"/>
<polygon fill="#191970" stroke="#191970" points="277.555,-888.3468 286.3933,-882.5043 275.8407,-881.56 277.555,-888.3468"/>
</g>
<!-- Node26&#45;&gt;Node11 -->
<g id="edge28" class="edge">
<title>Node26&#45;&gt;Node11</title>
<path fill="none" stroke="#191970" d="M204.8306,-907.4882C211.9173,-905.0204 218.8386,-901.9128 225,-898 246.3293,-884.4546 240.6047,-868.9148 261,-854 267.1383,-849.5111 274.1923,-845.6954 281.3085,-842.4991"/>
<polygon fill="#191970" stroke="#191970" points="283.0573,-845.5641 290.9707,-838.5193 280.3913,-839.0917 283.0573,-845.5641"/>
</g>
<!-- Node26&#45;&gt;Node24 -->
<g id="edge30" class="edge">
<title>Node26&#45;&gt;Node24</title>
<path fill="none" stroke="#191970" d="M205.055,-910.3039C212.4406,-907.4396 219.3861,-903.4719 225,-898 267.6253,-856.4525 219.9669,-812.1207 261,-769 263.9953,-765.8523 267.474,-763.1763 271.229,-760.9013"/>
<polygon fill="#191970" stroke="#191970" points="273.036,-763.9102 280.3943,-756.2874 269.8884,-757.6577 273.036,-763.9102"/>
</g>
<!-- Node27 -->
<g id="node28" class="node">
<title>Node27</title>
<g id="a_node28"><a xlink:href="classmomenta.html#a98078c7de442771358e691a2b0b037ce" target="_top" xlink:title="momenta::pbarX">
<polygon fill="#ffffff" stroke="#000000" points="279.5,-904.5 279.5,-923.5 368.5,-923.5 368.5,-904.5 279.5,-904.5"/>
<text text-anchor="middle" x="324" y="-911.5" font-family="Helvetica,sans-Serif" font-size="10.00" fill="#000000">momenta::pbarX</text>
</a>
</g>
</g>
<!-- Node26&#45;&gt;Node27 -->
<g id="edge29" class="edge">
<title>Node26&#45;&gt;Node27</title>
<path fill="none" stroke="#191970" d="M205.1927,-916.0425C225.6712,-915.6905 248.8304,-915.2923 269.2273,-914.9417"/>
<polygon fill="#191970" stroke="#191970" points="269.3643,-918.4399 279.3027,-914.7684 269.2439,-911.4409 269.3643,-918.4399"/>
</g>
<!-- Node28&#45;&gt;Node10 -->
<g id="edge32" class="edge">
<title>Node28&#45;&gt;Node10</title>
<path fill="none" stroke="#191970" d="M215.471,-873C230.6056,-873 246.65,-873 261.6272,-873"/>
<polygon fill="#191970" stroke="#191970" points="261.8013,-876.5001 271.8012,-873 261.8012,-869.5001 261.8013,-876.5001"/>
</g>
<!-- Node28&#45;&gt;Node11 -->
<g id="edge33" class="edge">
<title>Node28&#45;&gt;Node11</title>
<path fill="none" stroke="#191970" d="M209.0649,-857.9808C231.0408,-852.4396 255.6307,-846.2393 276.4088,-841.0001"/>
<polygon fill="#191970" stroke="#191970" points="277.4339,-844.3512 286.2746,-838.5124 275.7223,-837.5637 277.4339,-844.3512"/>
</g>
<!-- Node28&#45;&gt;Node24 -->
<g id="edge34" class="edge">
<title>Node28&#45;&gt;Node24</title>
<path fill="none" stroke="#191970" d="M169.1348,-857.9909C184.8057,-845.6925 207.0331,-827.5203 225,-810 242.3615,-793.07 240.7961,-782.4108 261,-769 265.3315,-766.1248 270.0919,-763.611 274.9955,-761.4204"/>
<polygon fill="#191970" stroke="#191970" points="276.5495,-764.5682 284.5271,-757.5961 273.9429,-758.0716 276.5495,-764.5682"/>
</g>
<!-- Node28&#45;&gt;Node27 -->
<g id="edge35" class="edge">
<title>Node28&#45;&gt;Node27</title>
<path fill="none" stroke="#191970" d="M213.4865,-888.0341C233.2749,-892.6835 254.7855,-897.7376 273.5257,-902.1407"/>
<polygon fill="#191970" stroke="#191970" points="272.7998,-905.5654 283.3352,-904.4455 274.4009,-898.751 272.7998,-905.5654"/>
</g>
<!-- Node29&#45;&gt;Node10 -->
<g id="edge37" class="edge">
<title>Node29&#45;&gt;Node10</title>
<path fill="none" stroke="#191970" d="M167.0133,-800.6073C188.7614,-812.3847 227.1337,-832.6657 261,-848 269.8955,-852.0278 279.6439,-856.0713 288.7574,-859.697"/>
<polygon fill="#191970" stroke="#191970" points="287.7394,-863.0572 298.3271,-863.4469 290.2933,-856.5397 287.7394,-863.0572"/>
</g>
<!-- Node29&#45;&gt;Node11 -->
<g id="edge38" class="edge">
<title>Node29&#45;&gt;Node11</title>
<path fill="none" stroke="#191970" d="M193.5337,-800.589C216.8721,-805.6713 245.7296,-811.9554 270.3658,-817.3203"/>
<polygon fill="#191970" stroke="#191970" points="269.7672,-820.7719 280.2829,-819.4799 271.2567,-813.9322 269.7672,-820.7719"/>
</g>
<!-- Node29&#45;&gt;Node24 -->
<g id="edge40" class="edge">
<title>Node29&#45;&gt;Node24</title>
<path fill="none" stroke="#191970" d="M188.2272,-781.4569C213.982,-775.1105 248.0076,-766.7259 275.5532,-759.9382"/>
<polygon fill="#191970" stroke="#191970" points="276.5089,-763.3074 285.3811,-757.5164 274.8341,-756.5108 276.5089,-763.3074"/>
</g>
<!-- Node30 -->
<g id="node31" class="node">
<title>Node30</title>
<g id="a_node31"><a xlink:href="classmomenta.html#adf9462fd94288b5cd635a555d689434b" target="_top" xlink:title="momenta::pbarY">
<polygon fill="#ffffff" stroke="#000000" points="279.5,-778.5 279.5,-797.5 368.5,-797.5 368.5,-778.5 279.5,-778.5"/>
<text text-anchor="middle" x="324" y="-785.5" font-family="Helvetica,sans-Serif" font-size="10.00" fill="#000000">momenta::pbarY</text>
</a>
</g>
</g>
<!-- Node29&#45;&gt;Node30 -->
<g id="edge39" class="edge">
<title>Node29&#45;&gt;Node30</title>
<path fill="none" stroke="#191970" d="M205.1927,-790.0425C225.6712,-789.6905 248.8304,-789.2923 269.2273,-788.9417"/>
<polygon fill="#191970" stroke="#191970" points="269.3643,-792.4399 279.3027,-788.7684 269.2439,-785.4409 269.3643,-792.4399"/>
</g>
<!-- Node31&#45;&gt;Node10 -->
<g id="edge42" class="edge">
<title>Node31&#45;&gt;Node10</title>
<path fill="none" stroke="#191970" d="M210.4632,-762.1484C215.7049,-764.9043 220.6558,-768.1583 225,-772 252.9981,-796.7597 233.7316,-822.4388 261,-848 265.7325,-852.4362 271.3481,-856.1211 277.247,-859.1726"/>
<polygon fill="#191970" stroke="#191970" points="276.1125,-862.5018 286.6637,-863.4632 279.015,-856.1319 276.1125,-862.5018"/>
</g>
<!-- Node31&#45;&gt;Node11 -->
<g id="edge43" class="edge">
<title>Node31&#45;&gt;Node11</title>
<path fill="none" stroke="#191970" d="M204.8308,-762.0661C211.8427,-764.9064 218.7442,-768.2028 225,-772 244.0762,-783.579 242.0182,-795.2669 261,-807 266.4323,-810.3579 272.4463,-813.2897 278.5396,-815.8233"/>
<polygon fill="#191970" stroke="#191970" points="277.5172,-819.1795 288.1078,-819.4809 280.0167,-812.6409 277.5172,-819.1795"/>
</g>
<!-- Node31&#45;&gt;Node24 -->
<g id="edge44" class="edge">
<title>Node31&#45;&gt;Node24</title>
<path fill="none" stroke="#191970" d="M215.471,-747.3781C233.4543,-747.4811 252.7221,-747.5915 269.9577,-747.6903"/>
<polygon fill="#191970" stroke="#191970" points="270.3772,-751.1927 280.3971,-747.7501 270.4174,-744.1928 270.3772,-751.1927"/>
</g>
<!-- Node31&#45;&gt;Node30 -->
<g id="edge45" class="edge">
<title>Node31&#45;&gt;Node30</title>
<path fill="none" stroke="#191970" d="M213.4865,-762.0341C233.2749,-766.6835 254.7855,-771.7376 273.5257,-776.1407"/>
<polygon fill="#191970" stroke="#191970" points="272.7998,-779.5654 283.3352,-778.4455 274.4009,-772.751 272.7998,-779.5654"/>
</g>
<!-- Node33 -->
<g id="node34" class="node">
<title>Node33</title>
<g id="a_node34"><a xlink:href="classpositions.html#a77d78afe9d418da5a6f5ba15e123e402" target="_top" xlink:title="positions::xhatX">
<polygon fill="#ffffff" stroke="#000000" points="280.5,-196.5 280.5,-215.5 367.5,-215.5 367.5,-196.5 280.5,-196.5"/>
<text text-anchor="middle" x="324" y="-203.5" font-family="Helvetica,sans-Serif" font-size="10.00" fill="#000000">positions::xhatX</text>
</a>
</g>
</g>
<!-- Node32&#45;&gt;Node33 -->
<g id="edge47" class="edge">
<title>Node32&#45;&gt;Node33</title>
<path fill="none" stroke="#191970" d="M198.6506,-145.5622C207.6916,-148.2759 216.8425,-151.7018 225,-156 243.6803,-165.8425 242.4896,-176.8417 261,-187 264.9951,-189.1924 269.2748,-191.163 273.6535,-192.9275"/>
<polygon fill="#191970" stroke="#191970" points="272.7312,-196.317 283.325,-196.4674 275.1373,-189.7434 272.7312,-196.317"/>
</g>
<!-- Node34 -->
<g id="node35" class="node">
<title>Node34</title>
<g id="a_node35"><a xlink:href="classpositions.html#a7c323a6022ee85bf1312d56d9726c308" target="_top" xlink:title="positions::xhatY">
<polygon fill="#ffffff" stroke="#000000" points="280.5,-158.5 280.5,-177.5 367.5,-177.5 367.5,-158.5 280.5,-158.5"/>
<text text-anchor="middle" x="324" y="-165.5" font-family="Helvetica,sans-Serif" font-size="10.00" fill="#000000">positions::xhatY</text>
</a>
</g>
</g>
<!-- Node32&#45;&gt;Node34 -->
<g id="edge48" class="edge">
<title>Node32&#45;&gt;Node34</title>
<path fill="none" stroke="#191970" d="M201.3833,-145.5144C223.0656,-149.4905 248.2555,-154.1099 270.1434,-158.1237"/>
<polygon fill="#191970" stroke="#191970" points="269.7998,-161.619 280.2671,-159.9802 271.0625,-154.7338 269.7998,-161.619"/>
</g>
<!-- Node35 -->
<g id="node36" class="node">
<title>Node35</title>
<g id="a_node36"><a xlink:href="classpositions.html#a6dbe3d67f866039efa6736ed9a7fb210" target="_top" xlink:title="positions::xbar2">
<polygon fill="#ffffff" stroke="#000000" points="281,-120.5 281,-139.5 367,-139.5 367,-120.5 281,-120.5"/>
<text text-anchor="middle" x="324" y="-127.5" font-family="Helvetica,sans-Serif" font-size="10.00" fill="#000000">positions::xbar2</text>
</a>
</g>
</g>
<!-- Node32&#45;&gt;Node35 -->
<g id="edge49" class="edge">
<title>Node32&#45;&gt;Node35</title>
<path fill="none" stroke="#191970" d="M206.6378,-134.0354C227.3005,-133.3249 250.5313,-132.5261 270.8387,-131.8279"/>
<polygon fill="#191970" stroke="#191970" points="270.9809,-135.3252 280.8547,-131.4835 270.7403,-128.3293 270.9809,-135.3252"/>
</g>
<!-- Node36&#45;&gt;Node33 -->
<g id="edge51" class="edge">
<title>Node36&#45;&gt;Node33</title>
<path fill="none" stroke="#191970" d="M209.9563,-107.1042C215.363,-109.8713 220.4888,-113.1399 225,-117 251.5815,-139.7448 234.1156,-164.6141 261,-187 264.0727,-189.5585 267.4828,-191.7726 271.0806,-193.6886"/>
<polygon fill="#191970" stroke="#191970" points="269.7709,-196.9375 280.3251,-197.8637 272.6521,-190.5579 269.7709,-196.9375"/>
</g>
<!-- Node36&#45;&gt;Node34 -->
<g id="edge52" class="edge">
<title>Node36&#45;&gt;Node34</title>
<path fill="none" stroke="#191970" d="M203.8768,-107.0165C211.1852,-109.8876 218.4218,-113.2055 225,-117 243.5435,-127.6963 242.3146,-138.5536 261,-149 264.9201,-151.1916 269.1218,-153.1581 273.4263,-154.9171"/>
<polygon fill="#191970" stroke="#191970" points="272.3512,-158.2512 282.9443,-158.4428 274.7828,-151.687 272.3512,-158.2512"/>
</g>
<!-- Node36&#45;&gt;Node35 -->
<g id="edge53" class="edge">
<title>Node36&#45;&gt;Node35</title>
<path fill="none" stroke="#191970" d="M216.9663,-106.6918C234.9248,-110.6025 254.0637,-114.7703 271.1177,-118.4841"/>
<polygon fill="#191970" stroke="#191970" points="270.3774,-121.9048 280.8932,-120.6128 271.8669,-115.0651 270.3774,-121.9048"/>
</g>
<!-- Node37&#45;&gt;Node33 -->
<g id="edge55" class="edge">
<title>Node37&#45;&gt;Node33</title>
<path fill="none" stroke="#191970" d="M206.6378,-218.1061C227.1304,-215.9923 250.1491,-213.6179 270.3367,-211.5355"/>
<polygon fill="#191970" stroke="#191970" points="270.7124,-215.0154 280.3005,-210.5077 269.9941,-208.0523 270.7124,-215.0154"/>
</g>
<!-- Node37&#45;&gt;Node34 -->
<g id="edge56" class="edge">
<title>Node37&#45;&gt;Node34</title>
<path fill="none" stroke="#191970" d="M194.3049,-214.43C204.5232,-211.7791 215.2417,-208.6185 225,-205 241.7726,-198.7806 244.3762,-193.6066 261,-187 266.7826,-184.7019 272.9566,-182.5215 279.0935,-180.5129"/>
<polygon fill="#191970" stroke="#191970" points="280.158,-183.8472 288.6453,-177.5056 278.0558,-177.1703 280.158,-183.8472"/>
</g>
<!-- Node37&#45;&gt;Node35 -->
<g id="edge57" class="edge">
<title>Node37&#45;&gt;Node35</title>
<path fill="none" stroke="#191970" d="M206.8229,-214.5512C213.2868,-212.0709 219.5115,-208.9432 225,-205 249.0295,-187.7362 237.3772,-166.8164 261,-149 264.1923,-146.5924 267.6893,-144.4879 271.348,-142.6488"/>
<polygon fill="#191970" stroke="#191970" points="272.9082,-145.7873 280.6943,-138.602 270.1268,-139.3636 272.9082,-145.7873"/>
</g>
<!-- Node38&#45;&gt;Node33 -->
<g id="edge59" class="edge">
<title>Node38&#45;&gt;Node33</title>
<path fill="none" stroke="#191970" d="M216.9663,-190.0523C234.5981,-192.6794 253.3678,-195.476 270.1849,-197.9817"/>
<polygon fill="#191970" stroke="#191970" points="269.9694,-201.4882 280.376,-199.5002 271.001,-194.5646 269.9694,-201.4882"/>
</g>
<!-- Node38&#45;&gt;Node34 -->
<g id="edge60" class="edge">
<title>Node38&#45;&gt;Node34</title>
<path fill="none" stroke="#191970" d="M216.9663,-175.3605C234.5981,-174.148 253.3678,-172.8572 270.1849,-171.7007"/>
<polygon fill="#191970" stroke="#191970" points="270.6397,-175.1778 280.376,-170.9999 270.1594,-168.1943 270.6397,-175.1778"/>
</g>
<!-- Node38&#45;&gt;Node35 -->
<g id="edge61" class="edge">
<title>Node38&#45;&gt;Node35</title>
<path fill="none" stroke="#191970" d="M201.8558,-164.9984C227.0664,-157.7747 256.9306,-149.2176 280.8186,-142.3729"/>
<polygon fill="#191970" stroke="#191970" points="282.0103,-145.6724 290.6594,-139.5532 280.0821,-138.9431 282.0103,-145.6724"/>
</g>
<!-- Node40 -->
<g id="node41" class="node">
<title>Node40</title>
<g id="a_node41"><a xlink:href="classMV__class.html#a191e58941f9dd9fd71bc411833b4b3b6" target="_top" xlink:title="MV_class::gGet">
<polygon fill="#ffffff" stroke="#000000" points="280.5,-76.5 280.5,-95.5 367.5,-95.5 367.5,-76.5 280.5,-76.5"/>
<text text-anchor="middle" x="324" y="-83.5" font-family="Helvetica,sans-Serif" font-size="10.00" fill="#000000">MV_class::gGet</text>
</a>
</g>
</g>
<!-- Node39&#45;&gt;Node40 -->
<g id="edge63" class="edge">
<title>Node39&#45;&gt;Node40</title>
<path fill="none" stroke="#191970" d="M193.5337,-57.589C216.8721,-62.6713 245.7296,-68.9554 270.3658,-74.3203"/>
<polygon fill="#191970" stroke="#191970" points="269.7672,-77.7719 280.2829,-76.4799 271.2567,-70.9322 269.7672,-77.7719"/>
</g>
<!-- Node41 -->
<g id="node42" class="node">
<title>Node41</title>
<g id="a_node42"><a xlink:href="classMV__class.html#ae17d5e3746cda12cb9b8ea5f6278a1a2" target="_top" xlink:title="MV_class::muGet">
<polygon fill="#ffffff" stroke="#000000" points="276.5,-38.5 276.5,-57.5 371.5,-57.5 371.5,-38.5 276.5,-38.5"/>
<text text-anchor="middle" x="324" y="-45.5" font-family="Helvetica,sans-Serif" font-size="10.00" fill="#000000">MV_class::muGet</text>
</a>
</g>
</g>
<!-- Node39&#45;&gt;Node41 -->
<g id="edge64" class="edge">
<title>Node39&#45;&gt;Node41</title>
<path fill="none" stroke="#191970" d="M198.5724,-48C219.6322,-48 244.3885,-48 266.3184,-48"/>
<polygon fill="#191970" stroke="#191970" points="266.499,-51.5001 276.499,-48 266.499,-44.5001 266.499,-51.5001"/>
</g>
<!-- Node42 -->
<g id="node43" class="node">
<title>Node42</title>
<g id="a_node43"><a xlink:href="classMV__class.html#a01e071bdc58b1b0ff4ec57870b34f073" target="_top" xlink:title="MV_class::NyGet">
<polygon fill="#ffffff" stroke="#000000" points="276.5,-.5 276.5,-19.5 371.5,-19.5 371.5,-.5 276.5,-.5"/>
<text text-anchor="middle" x="324" y="-7.5" font-family="Helvetica,sans-Serif" font-size="10.00" fill="#000000">MV_class::NyGet</text>
</a>
</g>
</g>
<!-- Node39&#45;&gt;Node42 -->
<g id="edge65" class="edge">
<title>Node39&#45;&gt;Node42</title>
<path fill="none" stroke="#191970" d="M193.5337,-38.411C216.8721,-33.3287 245.7296,-27.0446 270.3658,-21.6797"/>
<polygon fill="#191970" stroke="#191970" points="271.2567,-25.0678 280.2829,-19.5201 269.7672,-18.2281 271.2567,-25.0678"/>
</g>
<!-- Node43&#45;&gt;Node24 -->
<g id="edge67" class="edge">
<title>Node43&#45;&gt;Node24</title>
<path fill="none" stroke="#191970" d="M196.8211,-663.5567C206.3932,-666.3082 216.2107,-669.7498 225,-674 256.3,-689.1358 287.6364,-714.7546 306.4254,-731.524"/>
<polygon fill="#191970" stroke="#191970" points="304.149,-734.1847 313.9015,-738.3247 308.8593,-729.0066 304.149,-734.1847"/>
</g>
</g>
</svg>
        <g id="navigator" transform="translate(0 0)" fill="#404254">
                <rect fill="#f2f5e9" fill-opacity="0.5" stroke="#606060" stroke-width=".5" x="0" y="0" width="60" height="60"/>
                <use id="zoomplus" xlink:href="#zoomPlus" x="17" y="9" onmousedown="handleZoom(evt,'in')"/>
                <use id="zoomminus" xlink:href="#zoomMin" x="42" y="9" onmousedown="handleZoom(evt,'out')"/>
                <use id="reset" xlink:href="#resetDef" x="30" y="36" onmousedown="handleReset()"/>
                <g id="arrowUp" xlink:href="#dirArrow" transform="translate(30 24)" onmousedown="handlePan(0,-1)">
                  <use xlink:href="#rim" fill="#404040">
                        <set attributeName="fill" to="#808080" begin="arrowUp.mouseover" end="arrowUp.mouseout"/>
                  </use>
                  <path fill="none" stroke="white" stroke-width="1.5" d="M0,-3.0v7 M-2.5,-0.5L0,-3.0L2.5,-0.5"/>
                </g>
                <g id="arrowRight" xlink:href="#dirArrow" transform="rotate(90) translate(36 -43)" onmousedown="handlePan(1,0)">
                  <use xlink:href="#rim" fill="#404040">
                        <set attributeName="fill" to="#808080" begin="arrowRight.mouseover" end="arrowRight.mouseout"/>
                  </use>
                  <path fill="none" stroke="white" stroke-width="1.5" d="M0,-3.0v7 M-2.5,-0.5L0,-3.0L2.5,-0.5"/>
                </g>
                <g id="arrowDown" xlink:href="#dirArrow" transform="rotate(180) translate(-30 -48)" onmousedown="handlePan(0,1)">
                  <use xlink:href="#rim" fill="#404040">
                        <set attributeName="fill" to="#808080" begin="arrowDown.mouseover" end="arrowDown.mouseout"/>
                  </use>
                  <path fill="none" stroke="white" stroke-width="1.5" d="M0,-3.0v7 M-2.5,-0.5L0,-3.0L2.5,-0.5"/>
                </g>
                <g id="arrowLeft" xlink:href="#dirArrow" transform="rotate(270) translate(-36 17)" onmousedown="handlePan(-1,0)">
                  <use xlink:href="#rim" fill="#404040">
                        <set attributeName="fill" to="#808080" begin="arrowLeft.mouseover" end="arrowLeft.mouseout"/>
                  </use>
                  <path fill="none" stroke="white" stroke-width="1.5" d="M0,-3.0v7 M-2.5,-0.5L0,-3.0L2.5,-0.5"/>
                </g>
        </g>
        <svg viewBox="0 0 15 15" width="100%" height="30px" preserveAspectRatio="xMaxYMin meet">
         <g id="arrow_out" transform="scale(0.3 0.3)">
          <a xlink:href="main__omp_8cpp_a0ddf1224851353fc92bfbff6f499fa97_cgraph_org.svg" target="_base">
           <rect id="button" ry="5" rx="5" y="6" x="6" height="38" width="38"
                fill="#f2f5e9" fill-opacity="0.5" stroke="#606060" stroke-width="1.0"/>
           <path id="arrow"
             d="M 11.500037,31.436501 C 11.940474,20.09759 22.043105,11.32322 32.158766,21.979434 L 37.068811,17.246167 C 37.068811,17.246167 37.088388,32 37.088388,32 L 22.160133,31.978069 C 22.160133,31.978069 26.997745,27.140456 26.997745,27.140456 C 18.528582,18.264221 13.291696,25.230495 11.500037,31.436501 z"
             style="fill:#404040;"/>
          </a>
         </g>
        </svg>
</svg>
